%YAML 1.1
%TAG !u! tag:unity3d.com,2011:
--- !u!114 &11400000
MonoBehaviour:
  m_ObjectHideFlags: 0
  m_PrefabParentObject: {fileID: 0}
  m_PrefabInternal: {fileID: 0}
  m_GameObject: {fileID: 0}
  m_Enabled: 1
  m_EditorHideFlags: 0
  m_Script: {fileID: 11500000, guid: 8630023e62591004c8cd1c3d8857aaab, type: 3}
  m_Name: Class - Assassin
  m_EditorClassIdentifier: 
  className: Assassin
  cardPortrait: {fileID: 2800000, guid: 21cb54aaba144044eb14e17fa36ad679, type: 3}
  textColor: {r: 0.3658722, g: 1, b: 0.29310346, a: 1}
  maxHP: 200
  moveSpeed: 13
  size: 1
  gunPrefabs:
  - {fileID: 1071620194138924, guid: b7f92f17015f32c4cac26499fdc68929, type: 2}
  - {fileID: 1505172559310266, guid: a7c5d61c1ccaa3a4cab44675bd5b6d97, type: 2}
  powerPrefabs:
  - {fileID: 1366467734376052, guid: 60f8f333d3ef70943aa22fa515b6a718, type: 2}
